﻿{
  "dependencies": {
    "libVLCX": "0.9.4",
    "Microsoft.NETCore.UniversalWindowsPlatform": "5.3.3",
    "VLC.MediaElement": "0.9.17",
    "WindowsDevicePortalWrapper": "0.9.5"
  },
  "frameworks": {
    "uap10.0": {}
  },
  "runtimes": {
    "win10-arm": {},
    "win10-arm-aot": {},
    "win10-x86": {},
    "win10-x86-aot": {},
    "win10-x64": {},
    "win10-x64-aot": {}
  }
}