/out:"C:\Users\Arie\Documents\Sarah\Projects\HoloNinja\HoloNinja\obj\ARM\Release\ilc\intermediate\SgGenerated\\"
/int:"C:\Users\Arie\Documents\Sarah\Projects\HoloNinja\HoloNinja\obj\ARM\Release\ilc\intermediate\\"
/ref:"C:\Users\Arie\Documents\Sarah\Projects\HoloNinja\HoloNinja\obj\ARM\Release\ilc\intermediate\PreMergeILTransformed"
/ref:"C:\Users\Arie\Documents\Sarah\Projects\HoloNinja\HoloNinja\obj\ARM\Release\ilc\intermediate\TransformedSRWR"
/ref:"C:\Users\Arie\Documents\Sarah\Projects\HoloNinja\HoloNinja\obj\ARM\Release\ilc\in"
/ref:"C:\Users\Arie\Documents\Sarah\Projects\HoloNinja\HoloNinja\obj\ARM\Release\ilc\in\\"
/ref:"C:\Users\Arie\Documents\Sarah\Projects\HoloNinja\HoloNinja\obj\ARM\Release\ilc\in\\"
/ref:"C:\Users\Arie\.nuget\packages\microsoft.net.native.compiler\1.6.2\tools\ARM\ilc\lib\Private\\"
/ref:"C:\Users\Arie\Documents\Sarah\Projects\HoloNinja\HoloNinja\obj\ARM\Release\ilc\in\WinMetadata"
/ca:System.Private.CoreLib
/cscpath:"C:\Users\Arie\.nuget\packages\microsoft.net.native.compiler\1.6.2\tools\ARM\ilc\csc"
"@C:\Users\Arie\Documents\Sarah\Projects\HoloNinja\HoloNinja\obj\ARM\Release\ilc\intermediate\PreMergeILTransformed\ComputedSerializationInput.txt"
